[
  {
    "line": 2,
    "elements": [
      {
        "line": 4,
        "name": "",
        "description": "",
        "type": "background",
        "keyword": "Background",
        "steps": [
          {
            "result": {
              "duration": 30585169700,
              "status": "passed"
            },
            "line": 5,
            "name": "I navigate to patient grid",
            "match": {
              "location": "SD_PatientGrid.I_navigate_to_patient_grid()"
            },
            "keyword": "Given "
          }
        ]
      },
      {
        "before": [
          {
            "result": {
              "duration": 21889231500,
              "status": "passed"
            },
            "match": {
              "location": "SD_Login.Browser()"
            }
          }
        ],
        "line": 32,
        "name": "Add in lab orders with all fields",
        "description": "",
        "id": "add-edit-and-delete-in-lab-order;add-in-lab-orders-with-all-fields;;2",
        "type": "scenario",
        "keyword": "Scenario Outline",
        "steps": [
          {
            "result": {
              "duration": 26390400700,
              "status": "passed"
            },
            "line": 11,
            "name": "I search ISAACS, KRISTEN using global search",
            "match": {
              "arguments": [
                {
                  "val": "ISAACS, KRISTEN",
                  "offset": 9
                }
              ],
              "location": "SD_SearchPatient.search_Patient(String)"
            },
            "keyword": "Given "
          },
          {
            "result": {
              "duration": 8304399300,
              "status": "passed"
            },
            "line": 12,
            "name": "I click on Clinical tab",
            "match": {
              "location": "ProblemListsteps.I_am_on_PWB_CLinical_section()"
            },
            "keyword": "And "
          },
          {
            "result": {
              "duration": 7741174700,
              "status": "passed"
            },
            "line": 13,
            "name": "I click on Lab Orders\ttab",
            "match": {
              "location": "Labordersteps.I_click_on_laborder_button()"
            },
            "keyword": "* "
          },
          {
            "result": {
              "duration": 5901037000,
              "status": "passed"
            },
            "line": 14,
            "name": "I click on lab orders Add button",
            "match": {
              "location": "Labordersteps.I_click_on_add_button_to_add_lab_order()"
            },
            "keyword": "When "
          },
          {
            "result": {
              "duration": 2827939500,
              "status": "passed"
            },
            "line": 15,
            "name": "I enter VPA Labs in lab order laboratory field",
            "match": {
              "arguments": [
                {
                  "val": "VPA Labs",
                  "offset": 8
                }
              ],
              "location": "Labordersteps.I_select_laboratary_from_dropdown(String)"
            },
            "keyword": "And "
          },
          {
            "result": {
              "duration": 3519261200,
              "status": "passed"
            },
            "line": 16,
            "name": "I enter Latif, Zohaib in lab order order provider field",
            "match": {
              "arguments": [
                {
                  "val": "Latif, Zohaib",
                  "offset": 8
                }
              ],
              "location": "Labordersteps.select_orderprovider_from_dropdown(String)"
            },
            "keyword": "* "
          },
          {
            "result": {
              "duration": 1132687100,
              "status": "passed"
            },
            "line": 17,
            "name": "I enter 01/28/2021 13:57 in lab orders date field",
            "match": {
              "arguments": [
                {
                  "val": "01/28/2021 13:57",
                  "offset": 8
                }
              ],
              "location": "Labordersteps.I_enter_date_for_order_in_lab(String)"
            },
            "keyword": "* "
          },
          {
            "result": {
              "duration": 6922337300,
              "status": "passed"
            },
            "line": 18,
            "name": "I add Lipid Panel in lab order",
            "match": {
              "arguments": [
                {
                  "val": "Lipid Panel",
                  "offset": 6
                }
              ],
              "location": "Labordersteps.I_add_panel_from_add_panel_for_laborder(String)"
            },
            "keyword": "* "
          },
          {
            "result": {
              "duration": 1498914200,
              "status": "passed"
            },
            "line": 19,
            "name": "I enter Yes in lab orders stat field",
            "match": {
              "arguments": [
                {
                  "val": "Yes",
                  "offset": 8
                }
              ],
              "location": "Labordersteps.STAT_from_checkbox_for_laborder(String)"
            },
            "keyword": "* "
          },
          {
            "result": {
              "duration": 6121288100,
              "status": "passed"
            },
            "line": 20,
            "name": "I enter (Cholera, unspecified) in lab order diagnosis field",
            "match": {
              "arguments": [
                {
                  "val": "(Cholera, unspecified)",
                  "offset": 8
                }
              ],
              "location": "Labordersteps.I_set_the_diagnoses_for_laborder(String)"
            },
            "keyword": "* "
          },
          {
            "result": {
              "duration": 1038802900,
              "status": "passed"
            },
            "line": 21,
            "name": "I click on lab order specimen drop down",
            "match": {
              "location": "Labordersteps.specimen_template_for_laborder()"
            },
            "keyword": "* "
          },
          {
            "result": {
              "duration": 1058140700,
              "status": "passed"
            },
            "line": 22,
            "name": "I enter 01/28/2021 13:57 in lab order collection date field",
            "match": {
              "arguments": [
                {
                  "val": "01/28/2021 13:57",
                  "offset": 8
                }
              ],
              "location": "Labordersteps.collection_date_for_lab_order(String)"
            },
            "keyword": "* "
          },
          {
            "result": {
              "duration": 2171084400,
              "status": "passed"
            },
            "line": 23,
            "name": "I enter Serum in lab order type field",
            "match": {
              "arguments": [
                {
                  "val": "Serum",
                  "offset": 8
                }
              ],
              "location": "Labordersteps.specimen_type_for_lab_order(String)"
            },
            "keyword": "* "
          },
          {
            "result": {
              "duration": 1139087900,
              "status": "passed"
            },
            "line": 24,
            "name": "I enter 10 in lab order specimen no. field",
            "match": {
              "arguments": [
                {
                  "val": "10",
                  "offset": 8
                }
              ],
              "location": "Labordersteps.specimen_number_for_lab_order(String)"
            },
            "keyword": "* "
          },
          {
            "result": {
              "duration": 1564102900,
              "status": "passed"
            },
            "line": 25,
            "name": "I enter Lab order added in lab order notes field",
            "match": {
              "arguments": [
                {
                  "val": "Lab order added",
                  "offset": 8
                }
              ],
              "location": "Labordersteps.notes_for_laborder(String)"
            },
            "keyword": "* "
          },
          {
            "result": {
              "duration": 1232000000,
              "status": "passed"
            },
            "line": 26,
            "name": "I click on lab order Save All button",
            "match": {
              "location": "Labordersteps.saveall_button_to_save_lab_order_record()"
            },
            "keyword": "* "
          },
          {
            "result": {
              "duration": 6809894400,
              "status": "passed"
            },
            "line": 27,
            "name": "I should see success message for added lab order",
            "match": {
              "location": "Labordersteps.saved_successfully_alert_popup_for_laborder()"
            },
            "keyword": "Then "
          }
        ],
        "tags": [
          {
            "name": "@LabOrders"
          },
          {
            "name": "@AddLabOrder"
          },
          {
            "name": "@Regression"
          },
          {
            "name": "@Sanity"
          }
        ]
      }
    ],
    "name": "Add Edit and Delete in Lab Order",
    "description": "",
    "id": "add-edit-and-delete-in-lab-order",
    "keyword": "Feature",
    "uri": "Include/features/PatientGrid/ClinicalSection/LabOrder.feature",
    "tags": [
      {
        "name": "@LabOrders",
        "type": "Tag",
        "location": {
          "line": 1,
          "column": 1
        }
      }
    ]
  }
]